…
```r
insecte_sol_piege <-  range_read(sheet_address,
                              sheet = "insecte_sol_info_piege",
                              na = "NA",
                              col_types = "ccccDDcccnncD")

insecte_sol_piege
```

```
## # A tibble: 517 x 13
##    nom_cellule no_de_reference… no_de_reference… type_milieu date_debut date_fin   technicien_1
##    <chr>       <chr>            <chr>            <chr>       <date>     <date>     <chr>       
##  1 Mékinac (B) 135_104          135_104_F01      forestier   2016-05-20 2016-07-12 Caroline Du…
##  2 Mékinac (B) 135_104          135_104_F01      forestier   2016-05-20 2016-07-12 Caroline Du…
##  3 Mékinac (B) 135_104          135_104_F01      forestier   2016-05-20 2016-07-12 Caroline Du…
##  4 Mékinac (B) 135_104          135_104_F01      forestier   2016-05-20 2016-07-12 Caroline Du…
##  5 Mékinac (B) 135_104          135_104_F01      forestier   2016-05-20 2016-07-12 Caroline Du…
##  6 Mékinac (B) 135_104          135_104_F01      forestier   2016-05-20 2016-07-12 Caroline Du…
##  7 Lac Simonc… 132_116          132_116_F01      forestier   2016-06-03 2016-07-25 Caroline Du…
##  8 Lac Simonc… 132_116          132_116_F01      forestier   2016-06-03 2016-07-25 Caroline Du…
##  9 Lac Simonc… 132_116          132_116_F01      forestier   2016-06-03 2016-07-25 Caroline Du…
## 10 Bellechass… 141_108          141_108_F01      forestier   2016-05-26 2016-07-20 Caroline Du…
## # … with 507 more rows, and 6 more variables: technicien_2 <chr>, code_piege <chr>, latitude <dbl>,
## #   longitude <dbl>, no_echantillon <chr>, date_de_collecte <date>
```
…
